…
### Output Structure

``` r
rw30()
#> # A tibble: 3,000 × 3
#>    walk_number step_number     y
#>    <fct>             <int> <dbl>
#>  1 1                     1  0   
#>  2 1                     2  2.08
#>  3 1                     3  4.00
#>  4 1                     4  4.07
#>  5 1                     5  4.34
#>  6 1                     6  4.78
#>  7 1                     7  5.99
#>  8 1                     8  4.73
#>  9 1                     9  6.50
#> 10 1                    10  6.34
#> # ℹ 2,990 more rows
```
…
