Frequently Asked Questions (FAQ) • RandomWalker
…
custom_walk(
  .num_walks = 10,
  .n = 100,
  .custom_fns = my_displacement
)

Multi-Dimensional Questions

How do I create a 2D random walk?

Add .dimensions = 2:

random_normal_walk(.num_walks = 10, .n = 100, .dimensions = 2)
#> # A tibble: 800 × 14
#>    walk_number step_number        x        y cum_sum_x cum_sum_y cum_prod_x
#>    <fct>             <int>    <dbl>    <dbl>     <dbl>     <dbl>      <dbl>
#>  1 1                     1 -0.220   -0.119      -0.220   -0.119           0
#>  2 1                     2 -0.0624   0.0535     -0.283   -0.0658          0
#>  3 1                     3 -0.220    0.179      -0.503    0.113           0
#>  4 1                     4  0.146    0.0317     -0.357    0.145           0
#>  5 1                     5 -0.0783  -0.0700     -0.435    0.0749          0
#>  6 1                     6 -0.147   -0.00606    -0.582    0.0689          0
#>  7 1                     7 -0.00374 -0.0842     -0.586   -0.0154          0
#>  8 1                     8  0.170   -0.115      -0.416   -0.130           0
#>  9 1                     9 -0.0349   0.0425     -0.451   -0.0880          0
#> 10 1                    10 -0.0472  -0.119      -0.498   -0.207           0
#> # ℹ 790 more rows
#> # ℹ 7 more variables: cum_prod_y <dbl>, cum_min_x <dbl>, cum_min_y <dbl>,
#> #   cum_max_x <dbl>, cum_max_y <dbl>, cum_mean_x <dbl>, cum_mean_y <dbl>
…
