Brownian Motion — brownian_motion • RandomWalker
…
    Author

    Steven P. Sanderson II, MPH

    Examples

library(ggplot2)

brownian_motion()
#> # A tibble: 1,010 × 3
#>    walk_number     x     y
#>    <fct>       <int> <dbl>
#>  1 1               1  0   
#>  2 1               2 -1.40
#>  3 1               3 -1.14
#>  4 1               4 -3.58
#>  5 1               5 -3.59
#>  6 1               6 -2.97
#>  7 1               7 -1.82
#>  8 1               8 -3.64
#>  9 1               9 -3.89
#> 10 1              10 -4.13
#> # ℹ 1,000 more rows
…
