…
## Author

Steven P. Sanderson II, MPH

## Examples

``` r
set.seed(123)
brownian_motion()
#> # A tibble: 2,500 × 8
#>    walk_number step_number       y cum_sum_y cum_prod_y cum_min_y cum_max_y
#>    <fct>             <int>   <dbl>     <dbl>      <dbl>     <dbl>     <dbl>
#>  1 1                     1 -0.560     -0.560          0    -0.560    -0.560
#>  2 1                     2 -0.230     -0.791          0    -0.560    -0.230
#>  3 1                     3  1.56       0.768          0    -0.560     1.56 
#>  4 1                     4  0.0705     0.839          0    -0.560     1.56 
#>  5 1                     5  0.129      0.968          0    -0.560     1.56 
#>  6 1                     6  1.72       2.68           0    -0.560     1.72 
#>  7 1                     7  0.461      3.14           0    -0.560     1.72 
#>  8 1                     8 -1.27       1.88           0    -1.27      1.72 
#>  9 1                     9 -0.687      1.19           0    -1.27      1.72 
#> 10 1                    10 -0.446      0.746          0    -1.27      1.72 
#> # ℹ 2,490 more rows
#> # ℹ 1 more variable: cum_mean_y <dbl>
…
