…
## Author

Steven P. Sanderson II, MPH

## Examples

``` r
set.seed(123)
discrete_walk()
#> # A tibble: 2,500 × 8
#>    walk_number step_number     y cum_sum_y cum_prod_y cum_min_y cum_max_y
#>    <fct>             <int> <dbl>     <dbl>      <dbl>     <dbl>     <dbl>
#>  1 1                     1    -1        99          0        99        99
#>  2 1                     2     1       100          0        99       101
#>  3 1                     3    -1        99          0        99       101
#>  4 1                     4     1       100          0        99       101
#>  5 1                     5     1       101          0        99       101
#>  6 1                     6    -1       100          0        99       101
#>  7 1                     7     1       101          0        99       101
#>  8 1                     8     1       102          0        99       101
#>  9 1                     9     1       103          0        99       101
#> 10 1                    10    -1       102          0        99       101
#> # ℹ 2,490 more rows
#> # ℹ 1 more variable: cum_mean_y <dbl>
…
