Discrete Sampled Walk — discrete_walk • RandomWalker
…
    Author

    Steven P. Sanderson II, MPH

    Examples

library(ggplot2)

set.seed(123)
discrete_walk()
#> # A tibble: 2,500 × 8
#>    walk_number     x     y cum_sum cum_prod cum_min cum_max cum_mean
#>    <fct>       <int> <dbl>   <dbl>    <dbl>   <dbl>   <dbl>    <dbl>
#>  1 1               1    -1      99        0      99      99     99  
#>  2 1               2     1     100        0      99     101    100  
#>  3 1               3    -1      99        0      99     101     99.7
#>  4 1               4     1     100        0      99     101    100  
#>  5 1               5     1     101        0      99     101    100. 
#>  6 1               6    -1     100        0      99     101    100  
#>  7 1               7     1     101        0      99     101    100. 
#>  8 1               8     1     102        0      99     101    100. 
#>  9 1               9     1     103        0      99     101    100. 
#> 10 1              10    -1     102        0      99     101    100. 
#> # ℹ 2,490 more rows
…
