…
## Author

Steven P. Sanderson II, MPH

## Examples

``` r
set.seed(123)
df <- rw30()
euclidean_distance(df, step_number, y)
#> # A tibble: 3,000 × 4
#>    walk_number step_number      y distance
#>    <fct>             <int>  <dbl>    <dbl>
#>  1 1                     1  0        NA   
#>  2 1                     2 -0.560     1.15
#>  3 1                     3 -0.791     1.03
#>  4 1                     4  0.768     1.85
#>  5 1                     5  0.839     1.00
#>  6 1                     6  0.968     1.01
#>  7 1                     7  2.68      1.99
#>  8 1                     8  3.14      1.10
#>  9 1                     9  1.88      1.61
#> 10 1                    10  1.19      1.21
#> # ℹ 2,990 more rows
…
