Geometric Brownian Motion — geometric_brownian_motion • RandomWalker
…
    Author

    Steven P. Sanderson II, MPH

    Examples

set.seed(123)
geometric_brownian_motion()
#> # A tibble: 2,500 × 8
#>    walk_number step_number     y cum_sum_y cum_prod_y cum_min_y cum_max_y
#>    <fct>             <int> <dbl>     <dbl>      <dbl>     <dbl>     <dbl>
#>  1 1                     1 0.997      101.       200.      101.      101.
#>  2 1                     2 0.996      102.       399.      101.      101.
#>  3 1                     3 1.00       103.       799.      101.      101.
#>  4 1                     4 1.00       104.      1601.      101.      101.
#>  5 1                     5 1.01       105.      3210.      101.      101.
#>  6 1                     6 1.01       106.      6468.      101.      101.
#>  7 1                     7 1.02       107.     13048.      101.      101.
#>  8 1                     8 1.01       108.     26229.      101.      101.
#>  9 1                     9 1.01       109.     52626.      101.      101.
#> 10 1                    10 1.00       110.    105460.      101.      101.
#> # ℹ 2,490 more rows
#> # ℹ 1 more variable: cum_mean_y <dbl>
…
