…
## Author

Steven P. Sanderson II, MPH

## Examples

``` r
set.seed(123)
random_wilcox_walk()
#> # A tibble: 2,000 × 8
#>    walk_number step_number     y cum_sum_y cum_prod_y cum_min_y cum_max_y
#>    <fct>             <int> <int>     <dbl>      <dbl>     <dbl>     <dbl>
#>  1 1                     1    35        35          0        35        35
#>  2 1                     2    26        61          0        26        35
#>  3 1                     3    74       135          0        26        74
#>  4 1                     4    59       194          0        26        74
#>  5 1                     5    46       240          0        26        74
#>  6 1                     6    38       278          0        26        74
#>  7 1                     7    53       331          0        26        74
#>  8 1                     8    54       385          0        26        74
#>  9 1                     9    19       404          0        19        74
#> 10 1                    10    55       459          0        19        74
#> # ℹ 1,990 more rows
#> # ℹ 1 more variable: cum_mean_y <dbl>
…
