Generate Multiple Random Smirnov Walks in Multiple Dimensions — random_smirnov_walk • RandomWalker
…
    Author

    Steven P. Sanderson II, MPH

    Examples

set.seed(123)
random_smirnov_walk()
#> # A tibble: 2,000 × 8
#>    walk_number step_number     y cum_sum_y cum_prod_y cum_min_y cum_max_y
#>    <fct>             <int> <dbl>     <dbl>      <dbl>     <dbl>     <dbl>
#>  1 1                     1     1         1          0         1         1
#>  2 1                     2     1         2          0         1         1
#>  3 1                     3     1         3          0         1         1
#>  4 1                     4     1         4          0         1         1
#>  5 1                     5     1         5          0         1         1
#>  6 1                     6     1         6          0         1         1
#>  7 1                     7     1         7          0         1         1
#>  8 1                     8     1         8          0         1         1
#>  9 1                     9     1         9          0         1         1
#> 10 1                    10     1        10          0         1         1
#> # ℹ 1,990 more rows
#> # ℹ 1 more variable: cum_mean_y <dbl>
…
