…
## Author

Steven P. Sanderson II, MPH

## Examples

``` r
set.seed(123)
random_poisson_walk()
#> # A tibble: 2,000 × 8
#>    walk_number step_number     y cum_sum_y cum_prod_y cum_min_y cum_max_y
#>    <fct>             <int> <int>     <dbl>      <dbl>     <dbl>     <dbl>
#>  1 1                     1     1         1          0         1         1
#>  2 1                     2     1         2          0         1         1
#>  3 1                     3     1         3          0         1         1
#>  4 1                     4     2         5          0         1         2
#>  5 1                     5     2         7          0         1         2
#>  6 1                     6     1         8          0         1         2
#>  7 1                     7     4        12          0         1         4
#>  8 1                     8     0        12          0         0         4
#>  9 1                     9     0        12          0         0         4
#> 10 1                    10     0        12          0         0         4
#> # ℹ 1,990 more rows
#> # ℹ 1 more variable: cum_mean_y <dbl>
…
