…
## Author

Steven P. Sanderson II, MPH

## Examples

``` r
set.seed(123)
random_geometric_walk()
#> # A tibble: 2,000 × 8
#>    walk_number step_number     y cum_sum_y cum_prod_y cum_min_y cum_max_y
#>    <fct>             <int> <int>     <dbl>      <dbl>     <dbl>     <dbl>
#>  1 1                     1     1         1          0         1         1
#>  2 1                     2     3         4          0         1         3
#>  3 1                     3     1         5          0         1         3
#>  4 1                     4     0         5          0         0         3
#>  5 1                     5     0         5          0         0         3
#>  6 1                     6     3         8          0         0         3
#>  7 1                     7     0         8          0         0         3
#>  8 1                     8     0         8          0         0         3
#>  9 1                     9     1         9          0         0         3
#> 10 1                    10     0         9          0         0         3
#> # ℹ 1,990 more rows
#> # ℹ 1 more variable: cum_mean_y <dbl>
…
