…
## Author

Steven P. Sanderson II, MPH

## Examples

``` r
set.seed(123)
random_logistic_walk()
#> # A tibble: 2,000 × 8
#>    walk_number step_number      y cum_sum_y cum_prod_y cum_min_y cum_max_y
#>    <fct>             <int>  <dbl>     <dbl>      <dbl>     <dbl>     <dbl>
#>  1 1                     1  0.644     0.644          0     0.644     0.644
#>  2 1                     2 -0.232     0.412          0    -0.232     0.644
#>  3 1                     3  0.813     1.23           0    -0.232     0.813
#>  4 1                     4  2.06      3.28           0    -0.232     2.06 
#>  5 1                     5  2.22      5.50           0    -0.232     2.22 
#>  6 1                     6  0.644     6.15           0    -0.232     2.22 
#>  7 1                     7  4.18     10.3            0    -0.232     4.18 
#>  8 1                     8 -3.68      6.65           0    -3.68      4.18 
#>  9 1                     9 -1.20      5.45           0    -3.68      4.18 
#> 10 1                    10 -1.76      3.69           0    -3.68      4.18 
#> # ℹ 1,990 more rows
#> # ℹ 1 more variable: cum_mean_y <dbl>
…
