…
## Author

Steven P. Sanderson II, MPH

## Examples

``` r
set.seed(123)
random_normal_walk()
#> # A tibble: 2,000 × 8
#>    walk_number step_number       y cum_sum_y cum_prod_y cum_min_y cum_max_y
#>    <fct>             <int>   <dbl>     <dbl>      <dbl>     <dbl>     <dbl>
#>  1 1                     1  0.125     0.125           0    0.125      0.125
#>  2 1                     2 -0.0628    0.0626          0   -0.0628     0.125
#>  3 1                     3 -0.0326    0.0300          0   -0.0628     0.125
#>  4 1                     4  0.179     0.209           0   -0.0628     0.179
#>  5 1                     5  0.0435    0.252           0   -0.0628     0.179
#>  6 1                     6  0.137     0.389           0   -0.0628     0.179
#>  7 1                     7 -0.0688    0.320           0   -0.0688     0.179
#>  8 1                     8 -0.0467    0.274           0   -0.0688     0.179
#>  9 1                     9 -0.0473    0.226           0   -0.0688     0.179
#> 10 1                    10  0.0448    0.271           0   -0.0688     0.179
#> # ℹ 1,990 more rows
#> # ℹ 1 more variable: cum_mean_y <dbl>
…
