…
## Author

Steven P. Sanderson II, MPH

## Examples

``` r
set.seed(123)
random_beta_walk()
#> # A tibble: 2,000 × 8
#>    walk_number step_number      y cum_sum_y cum_prod_y cum_min_y cum_max_y
#>    <fct>             <int>  <dbl>     <dbl>      <dbl>     <dbl>     <dbl>
#>  1 1                     1 0.0544    0.0544          0    0.0544    0.0544
#>  2 1                     2 0.514     0.569           0    0.0544    0.514 
#>  3 1                     3 0.374     0.942           0    0.0544    0.514 
#>  4 1                     4 0.404     1.35            0    0.0544    0.514 
#>  5 1                     5 0.811     2.16            0    0.0544    0.811 
#>  6 1                     6 0.893     3.05            0    0.0544    0.893 
#>  7 1                     7 0.391     3.44            0    0.0544    0.893 
#>  8 1                     8 0.636     4.08            0    0.0544    0.893 
#>  9 1                     9 0.529     4.61            0    0.0544    0.893 
#> 10 1                    10 0.695     5.30            0    0.0544    0.893 
#> # ℹ 1,990 more rows
#> # ℹ 1 more variable: cum_mean_y <dbl>
…
