…
## Author

Steven P. Sanderson II, MPH

## Examples

``` r
set.seed(123)
random_chisquared_walk()
#> # A tibble: 2,000 × 8
#>    walk_number step_number     y cum_sum_y cum_prod_y cum_min_y cum_max_y
#>    <fct>             <int> <dbl>     <dbl>      <dbl>     <dbl>     <dbl>
#>  1 1                     1  5.08      5.08          0      5.08      5.08
#>  2 1                     2  5.49     10.6           0      5.08      5.49
#>  3 1                     3  2.74     13.3           0      2.74      5.49
#>  4 1                     4  8.02     21.3           0      2.74      8.02
#>  5 1                     5  8.21     29.5           0      2.74      8.21
#>  6 1                     6  1.22     30.8           0      1.22      8.21
#>  7 1                     7  1.22     32.0           0      1.22      8.21
#>  8 1                     8  2.25     34.2           0      1.22      8.21
#>  9 1                     9  1.29     35.5           0      1.22      8.21
#> 10 1                    10  2.42     37.9           0      1.22      8.21
#> # ℹ 1,990 more rows
#> # ℹ 1 more variable: cum_mean_y <dbl>
…
