…
## Author

Steven P. Sanderson II, MPH

## Examples

``` r
set.seed(123)
random_lognormal_walk()
#> # A tibble: 2,000 × 8
#>    walk_number step_number     y cum_sum_y cum_prod_y cum_min_y cum_max_y
#>    <fct>             <int> <dbl>     <dbl>      <dbl>     <dbl>     <dbl>
#>  1 1                     1 3.50       3.50          0     3.50       3.50
#>  2 1                     2 0.534      4.04          0     0.534      3.50
#>  3 1                     3 0.722      4.76          0     0.534      3.50
#>  4 1                     4 5.97      10.7           0     0.534      5.97
#>  5 1                     5 1.55      12.3           0     0.534      5.97
#>  6 1                     6 3.93      16.2           0     0.534      5.97
#>  7 1                     7 0.503     16.7           0     0.503      5.97
#>  8 1                     8 0.627     17.3           0     0.503      5.97
#>  9 1                     9 0.623     18.0           0     0.503      5.97
#> 10 1                    10 1.57      19.5           0     0.503      5.97
#> # ℹ 1,990 more rows
#> # ℹ 1 more variable: cum_mean_y <dbl>
…
