Generate Multiple Random Normal Walks — random_normal_walk • RandomWalker
…
    See also

    Other Generator Functions:
geometric_brownian_motion(),
random_normal_drift_walk()

    Author

    Steven P. Sanderson II, MPH

    Examples

# Generate 10 random walks with 50 steps each
random_normal_walk(.num_walks = 10, .n = 50)
#> # A tibble: 400 × 7
#>    walk_number     x        y cum_sum cum_prod cum_min cum_max
#>    <fct>       <int>    <dbl>   <dbl>    <dbl>   <dbl>   <dbl>
#>  1 1               1  0.0337   0.0337        0  0.0337  0.0337
#>  2 1               2 -0.0214   0.0124        0 -0.0214  0.0337
#>  3 1               3  0.0932   0.106         0 -0.0214  0.0932
#>  4 1               4 -0.133   -0.0269        0 -0.133   0.0932
#>  5 1               5 -0.00481 -0.0318        0 -0.133   0.0932
#>  6 1               6 -0.0122  -0.0439        0 -0.133   0.0932
#>  7 1               7  0.136    0.0919        0 -0.133   0.136 
#>  8 1               8 -0.00481  0.0870        0 -0.133   0.136 
#>  9 1               9  0.0293   0.116         0 -0.133   0.136 
#> 10 1              10  0.0415   0.158         0 -0.133   0.136 
#> # ℹ 390 more rows

# Generate random walks with different mean and standard deviation
random_normal_walk(.num_walks = 5, .n = 100, .mu = 0.5, .sd = 0.2)
#> # A tibble: 400 × 7
#>    walk_number     x     y cum_sum cum_prod cum_min cum_max
#>    <fct>       <int> <dbl>   <dbl>    <dbl>   <dbl>   <dbl>
#>  1 1               1 0.198   0.198        0   0.198   0.198
#>  2 1               2 0.468   0.666        0   0.198   0.468
#>  3 1               3 0.610   1.28         0   0.198   0.610
#>  4 1               4 0.675   1.95         0   0.198   0.675
#>  5 1               5 0.626   2.58         0   0.198   0.675
#>  6 1               6 0.257   2.83         0   0.198   0.675
#>  7 1               7 0.250   3.08         0   0.198   0.675
#>  8 1               8 0.398   3.48         0   0.198   0.675
#>  9 1               9 0.743   4.22         0   0.198   0.743
#> 10 1              10 0.505   4.73         0   0.198   0.743
#> # ℹ 390 more rows
…
