…
## Author

Steven P. Sanderson II, MPH

## Examples

``` r
set.seed(123)
random_normal_drift_walk()
#> # A tibble: 2,500 × 8
#>    walk_number step_number      y cum_sum_y cum_prod_y cum_min_y cum_max_y
#>    <fct>             <int>  <dbl>     <dbl>      <dbl>     <dbl>     <dbl>
#>  1 1                     1 -1.02     -1.02           0     -1.02    -1.02 
#>  2 1                     2 -0.821    -1.84           0     -1.02    -0.821
#>  3 1                     3  2.63      0.785          0     -1.02     2.63 
#>  4 1                     4  1.31      2.09           0     -1.02     2.63 
#>  5 1                     5  1.60      3.69           0     -1.02     2.63 
#>  6 1                     6  5.00      8.69           0     -1.02     5.00 
#>  7 1                     7  4.30     13.0            0     -1.02     5.00 
#>  8 1                     8  1.41     14.4            0     -1.02     5.00 
#>  9 1                     9  1.41     15.8            0     -1.02     5.00 
#> 10 1                    10  1.30     17.1            0     -1.02     5.00 
#> # ℹ 2,490 more rows
#> # ℹ 1 more variable: cum_mean_y <dbl>
…
