…
## Author

Steven P. Sanderson II, MPH

## Examples

``` r
set.seed(123)
random_exponential_walk()
#> # A tibble: 2,000 × 8
#>    walk_number step_number     y cum_sum_y cum_prod_y cum_min_y cum_max_y
#>    <fct>             <int> <dbl>     <dbl>      <dbl>     <dbl>     <dbl>
#>  1 1                     1 1.35       1.35          0     1.35       1.35
#>  2 1                     2 0.507      1.85          0     0.507      1.35
#>  3 1                     3 0.843      2.70          0     0.507      1.35
#>  4 1                     4 0.975      3.67          0     0.507      1.35
#>  5 1                     5 0.380      4.05          0     0.380      1.35
#>  6 1                     6 0.791      4.84          0     0.380      1.35
#>  7 1                     7 4.50       9.34          0     0.380      4.50
#>  8 1                     8 1.46      10.8           0     0.380      4.50
#>  9 1                     9 0.589     11.4           0     0.380      4.50
#> 10 1                    10 0.314     11.7           0     0.314      4.50
#> # ℹ 1,990 more rows
#> # ℹ 1 more variable: cum_mean_y <dbl>
…
