…
## Author

Steven P. Sanderson II, MPH

## Examples

``` r
set.seed(123)
random_f_walk()
#> # A tibble: 2,000 × 8
#>    walk_number step_number      y cum_sum_y cum_prod_y cum_min_y cum_max_y
#>    <fct>             <int>  <dbl>     <dbl>      <dbl>     <dbl>     <dbl>
#>  1 1                     1 0.0883    0.0883          0    0.0883    0.0883
#>  2 1                     2 1.05      1.14            0    0.0883    1.05  
#>  3 1                     3 0.646     1.78            0    0.0883    1.05  
#>  4 1                     4 0.713     2.50            0    0.0883    1.05  
#>  5 1                     5 3.35      5.84            0    0.0883    3.35  
#>  6 1                     6 5.57     11.4             0    0.0883    5.57  
#>  7 1                     7 0.672    12.1             0    0.0883    5.57  
#>  8 1                     8 1.64     13.7             0    0.0883    5.57  
#>  9 1                     9 1.10     14.8             0    0.0883    5.57  
#> 10 1                    10 1.93     16.8             0    0.0883    5.57  
#> # ℹ 1,990 more rows
#> # ℹ 1 more variable: cum_mean_y <dbl>
…
