…
## Author

Steven P. Sanderson II, MPH

## Examples

``` r
set.seed(123)
random_cauchy_walk()
#> # A tibble: 2,000 × 8
#>    walk_number step_number       y cum_sum_y cum_prod_y cum_min_y cum_max_y
#>    <fct>             <int>   <dbl>     <dbl>      <dbl>     <dbl>     <dbl>
#>  1 1                     1   1.27      1.27           0     1.27       1.27
#>  2 1                     2  -0.784     0.485          0    -0.784      1.27
#>  3 1                     3   3.40      3.89           0    -0.784      3.40
#>  4 1                     4  -0.385     3.50           0    -0.784      3.40
#>  5 1                     5  -0.189     3.31           0    -0.784      3.40
#>  6 1                     6   0.144     3.46           0    -0.784      3.40
#>  7 1                     7 -11.3      -7.84           0   -11.3        3.40
#>  8 1                     8  -0.351    -8.19           0   -11.3        3.40
#>  9 1                     9  -6.13    -14.3            0   -11.3        3.40
#> 10 1                    10   7.29     -7.03           0   -11.3        7.29
#> # ℹ 1,990 more rows
#> # ℹ 1 more variable: cum_mean_y <dbl>
…
