…
## Author

Steven P. Sanderson II, MPH

## Examples

``` r
set.seed(123)
random_uniform_walk()
#> # A tibble: 2,000 × 8
#>    walk_number step_number      y cum_sum_y cum_prod_y cum_min_y cum_max_y
#>    <fct>             <int>  <dbl>     <dbl>      <dbl>     <dbl>     <dbl>
#>  1 1                     1 0.656      0.656          0    0.656      0.656
#>  2 1                     2 0.442      1.10           0    0.442      0.656
#>  3 1                     3 0.693      1.79           0    0.442      0.693
#>  4 1                     4 0.886      2.68           0    0.442      0.886
#>  5 1                     5 0.902      3.58           0    0.442      0.902
#>  6 1                     6 0.656      4.24           0    0.442      0.902
#>  7 1                     7 0.985      5.22           0    0.442      0.985
#>  8 1                     8 0.0246     5.24           0    0.0246     0.985
#>  9 1                     9 0.232      5.48           0    0.0246     0.985
#> 10 1                    10 0.147      5.62           0    0.0246     0.985
#> # ℹ 1,990 more rows
#> # ℹ 1 more variable: cum_mean_y <dbl>
…
