Generate a Random Displacement Walk in 2D — random_displacement_walk • RandomWalker
…
    Author

    Steven P. Sanderson II, MPH

    Examples

random_displacement_walk(.n = 10, .seed = Sys.Date())
#> # A tibble: 275 × 3
#>    walk_number step_number     y
#>    <fct>             <dbl> <dbl>
#>  1 1                     1     0
#>  2 1                     2     2
#>  3 1                     3     6
#>  4 1                     4     5
#>  5 1                     5     1
#>  6 1                     6     0
#>  7 1                     7     1
#>  8 1                     8     4
#>  9 1                     9     6
#> 10 1                    10    10
#> # ℹ 265 more rows
…
