…
## Author

Steven P. Sanderson II, MPH

## Examples

``` r
random_displacement_walk(.n = 10, .seed = Sys.Date())
#> # A tibble: 275 × 3
#>    walk_number step_number     y
#>    <fct>             <dbl> <dbl>
#>  1 1                     1     0
#>  2 1                     2     4
#>  3 1                     3     0
#>  4 1                     4    -1
#>  5 1                     5    -3
#>  6 1                     6    -1
#>  7 1                     7    -3
#>  8 1                     8    -2
#>  9 1                     9    -1
#> 10 1                    10    -4
#> # ℹ 265 more rows
```
