…
## Author

Steven P. Sanderson II, MPH

## Examples

``` r
set.seed(123)
random_t_walk()
#> # A tibble: 2,000 × 8
#>    walk_number step_number       y cum_sum_y cum_prod_y cum_min_y cum_max_y
#>    <fct>             <int>   <dbl>     <dbl>      <dbl>     <dbl>     <dbl>
#>  1 1                     1  1.63       1.63           0     1.63       1.63
#>  2 1                     2 -0.201      1.43           0    -0.201      1.63
#>  3 1                     3 -1.18       0.243          0    -1.18       1.63
#>  4 1                     4 -1.56      -1.31           0    -1.56       1.63
#>  5 1                     5  1.49       0.176          0    -1.56       1.63
#>  6 1                     6  1.85       2.03           0    -1.56       1.85
#>  7 1                     7  0.849      2.87           0    -1.56       1.85
#>  8 1                     8 -0.0532     2.82           0    -1.56       1.85
#>  9 1                     9  0.819      3.64           0    -1.56       1.85
#> 10 1                    10 -0.186      3.45           0    -1.56       1.85
#> # ℹ 1,990 more rows
#> # ℹ 1 more variable: cum_mean_y <dbl>
…
