…
## Author

Steven P. Sanderson II, MPH

## Examples

``` r
set.seed(123)
random_gamma_walk()
#> # A tibble: 2,000 × 8
#>    walk_number step_number       y cum_sum_y cum_prod_y cum_min_y cum_max_y
#>    <fct>             <int>   <dbl>     <dbl>      <dbl>     <dbl>     <dbl>
#>  1 1                     1 0.0696     0.0696          0   0.0696     0.0696
#>  2 1                     2 0.272      0.342           0   0.0696     0.272 
#>  3 1                     3 0.391      0.733           0   0.0696     0.391 
#>  4 1                     4 0.0334     0.766           0   0.0334     0.391 
#>  5 1                     5 0.00936    0.775           0   0.00936    0.391 
#>  6 1                     6 0.0997     0.875           0   0.00936    0.391 
#>  7 1                     7 0.871      1.75            0   0.00936    0.871 
#>  8 1                     8 0.914      2.66            0   0.00936    0.914 
#>  9 1                     9 0.457      3.12            0   0.00936    0.914 
#> 10 1                    10 0.496      3.61            0   0.00936    0.914 
#> # ℹ 1,990 more rows
#> # ℹ 1 more variable: cum_mean_y <dbl>
…
