…
## Author

Steven P. Sanderson II, MPH

## Examples

``` r
set.seed(123)
random_hypergeometric_walk()
#> # A tibble: 2,000 × 8
#>    walk_number step_number     y cum_sum_y cum_prod_y cum_min_y cum_max_y
#>    <fct>             <int> <int>     <dbl>      <dbl>     <dbl>     <dbl>
#>  1 1                     1     6         6          0         6         6
#>  2 1                     2     5        11          0         5         6
#>  3 1                     3     6        17          0         5         6
#>  4 1                     4     7        24          0         5         7
#>  5 1                     5     7        31          0         5         7
#>  6 1                     6     6        37          0         5         7
#>  7 1                     7     8        45          0         5         8
#>  8 1                     8     2        47          0         2         8
#>  9 1                     9     4        51          0         2         8
#> 10 1                    10     3        54          0         2         8
#> # ℹ 1,990 more rows
#> # ℹ 1 more variable: cum_mean_y <dbl>
…
