…
## Author

Steven P. Sanderson II, MPH

## Examples

``` r
set.seed(123)
random_multinomial_walk()
#> # A tibble: 2,000 × 8
#>    walk_number step_number     y cum_sum_y cum_prod_y cum_min_y cum_max_y
#>    <fct>             <int> <int>     <dbl>      <dbl>     <dbl>     <dbl>
#>  1 25                    1     0         0          0         0         0
#>  2 25                    2     0         0          0         0         0
#>  3 25                    3     0         0          0         0         0
#>  4 25                    4     0         0          0         0         0
#>  5 25                    5     0         0          0         0         0
#>  6 25                    6     0         0          0         0         0
#>  7 25                    7     1         1          0         0         1
#>  8 25                    8     0         1          0         0         1
#>  9 25                    9     0         1          0         0         1
#> 10 25                   10     0         1          0         0         1
#> # ℹ 1,990 more rows
#> # ℹ 1 more variable: cum_mean_y <dbl>
…
