…
## Author

Steven P. Sanderson II, MPH

## Examples

``` r
set.seed(123)
random_weibull_walk()
#> # A tibble: 2,000 × 8
#>    walk_number step_number      y cum_sum_y cum_prod_y cum_min_y cum_max_y
#>    <fct>             <int>  <dbl>     <dbl>      <dbl>     <dbl>     <dbl>
#>  1 1                     1 0.422      0.422          0    0.422      0.422
#>  2 1                     2 0.816      1.24           0    0.422      0.816
#>  3 1                     3 0.367      1.61           0    0.367      0.816
#>  4 1                     4 0.121      1.73           0    0.121      0.816
#>  5 1                     5 0.103      1.83           0    0.103      0.816
#>  6 1                     6 0.422      2.25           0    0.103      0.816
#>  7 1                     7 0.0152     2.27           0    0.0152     0.816
#>  8 1                     8 3.70       5.97           0    0.0152     3.70 
#>  9 1                     9 1.46       7.43           0    0.0152     3.70 
#> 10 1                    10 1.92       9.35           0    0.0152     3.70 
#> # ℹ 1,990 more rows
#> # ℹ 1 more variable: cum_mean_y <dbl>
…
