Summarize Walks Data — summarize_walks • RandomWalker
…
# Example data frame
walk_data <- random_normal_walk(.initial_value = 100)

# Summarize the walks
summarize_walks(walk_data, cum_sum, walk_number)
#> Registered S3 method overwritten by 'quantmod':
#>   method            from
#>   as.zoo.data.frame zoo 
#> # A tibble: 25 × 17
#>    walk_number fns         fns_name dimensions mean_val median range quantile_lo
#>    <fct>       <chr>       <chr>         <dbl>    <dbl>  <dbl> <dbl>       <dbl>
#>  1 1           random_nor… Random …          1    100.   100.  1.47         99.5
#>  2 2           random_nor… Random …          1     99.8   99.8 0.721        99.6
#>  3 3           random_nor… Random …          1     99.5   99.5 0.987        99.2
#>  4 4           random_nor… Random …          1     98.8   98.6 1.96         98.1
#>  5 5           random_nor… Random …          1    101.   101.  1.41        100. 
#>  6 6           random_nor… Random …          1    100.   100.  0.937        99.6
#>  7 7           random_nor… Random …          1    101.   101.  1.94        100. 
#>  8 8           random_nor… Random …          1     99.4   99.5 1.70         98.6
#>  9 9           random_nor… Random …          1    101.   100.  2.03         99.9
#> 10 10          random_nor… Random …          1    101.   100.  1.22        100. 
#> # ℹ 15 more rows
#> # ℹ 9 more variables: quantile_hi <dbl>, variance <dbl>, sd <dbl>,
#> #   min_val <dbl>, max_val <dbl>, harmonic_mean <dbl>, geometric_mean <dbl>,
#> #   skewness <dbl>, kurtosis <dbl>
…
